<?xml version="1.0" encoding="iso-8859-1"?>
<!-- Generator: Adobe Illustrator 25.4.1, SVG Export Plug-In . SVG Version: 6.00 Build 0)  -->
<svg version="1.1" xmlns="http://www.w3.org/2000/svg" xmlns:xlink="http://www.w3.org/1999/xlink" x="0px" y="0px"
	 viewBox="0 0 36 36" style="enable-background:new 0 0 36 36;" xml:space="preserve">
<g id="smart_x5F_scheduling_-_ATOM">
	<g>
		<path style="fill:#01557F;" d="M28.144,15.349V5.248c0-1.749-1.431-3.18-3.18-3.18H4.824c-1.749,0-3.18,1.431-3.18,3.18v20.14
			c0,1.749,1.431,3.18,3.18,3.18h10.634C16.771,32.87,20.769,36,25.5,36C31.299,36,36,31.299,36,25.5
			C36,20.616,32.661,16.523,28.144,15.349z M21.913,7.384h3.052v3.052h-3.052V7.384z M21.913,11.656h3.052v3.052h-3.052V11.656z
			 M17.641,7.384h3.052v3.052h-3.052V7.384z M17.641,11.656h3.052v3.052h-3.052V11.656z M7.876,23.252H4.824V20.2h3.052V23.252z
			 M7.876,18.98H4.824v-3.052h3.052V18.98z M7.876,14.708H4.824v-3.052h3.052V14.708z M7.876,10.435H4.824V7.384h3.052V10.435z
			 M12.148,23.252H9.096V20.2h3.052V23.252z M12.148,18.98H9.096v-3.052h3.052V18.98z M12.148,14.708H9.096v-3.052h3.052V14.708z
			 M12.148,10.435H9.096V7.384h3.052V10.435z M16.42,20.244c-0.536,0.924-0.938,1.933-1.173,3.008h-1.879V20.2h3.052V20.244z
			 M16.42,18.98h-3.052v-3.052h3.052V18.98z M16.42,14.708h-3.052v-3.052h3.052V14.708z M16.42,10.435h-3.052V7.384h3.052V10.435z
			 M17.641,18.554v-2.626h3.052v0.244C19.53,16.773,18.499,17.583,17.641,18.554z M31.864,32.118
			c-0.344,0.344-0.814,0.516-1.397,0.516c-0.67,0-1.488-0.227-2.433-0.679c-0.843-0.403-1.741-0.975-2.644-1.661
			c-0.829,0.612-1.65,1.121-2.425,1.492c-0.944,0.451-1.763,0.678-2.433,0.678c-0.583,0-1.054-0.172-1.397-0.516
			c-0.738-0.738-0.682-2.062,0.163-3.829c0.374-0.783,0.889-1.613,1.509-2.45c-0.62-0.837-1.134-1.667-1.509-2.45
			c-0.845-1.767-0.901-3.091-0.163-3.829c0.738-0.74,2.062-0.682,3.83,0.162c0.774,0.371,1.596,0.88,2.425,1.492
			c2.57-1.948,5.251-3.047,6.474-1.824c1.215,1.217,0.13,3.885-1.806,6.449C31.994,28.233,33.08,30.901,31.864,32.118z"/>
		<path style="fill:#01557F;" d="M30.471,19.712c-0.903,0-2.457,0.639-4.272,1.977c0.599,0.489,1.196,1.01,1.776,1.59
			c0.506,0.506,0.99,1.041,1.445,1.588c1.789-2.431,2.294-4.382,1.738-4.94C31.015,19.785,30.78,19.712,30.471,19.712z"/>
		<path style="fill:#01557F;" d="M27.975,28.06c-0.581,0.581-1.18,1.103-1.78,1.594c0.779,0.576,1.548,1.055,2.271,1.401
			c1.271,0.607,2.303,0.747,2.691,0.357c0.557-0.557,0.051-2.509-1.738-4.94C28.965,27.018,28.48,27.554,27.975,28.06z"/>
		<path style="fill:#01557F;" d="M28.792,25.669c-0.448-0.547-0.951-1.11-1.525-1.683c-0.639-0.639-1.264-1.188-1.869-1.672
			c-0.542,0.445-1.098,0.935-1.666,1.503c-0.606,0.606-1.147,1.229-1.646,1.852c0.499,0.623,1.04,1.246,1.646,1.852
			c0.548,0.548,1.111,1.041,1.674,1.503c0.602-0.482,1.226-1.036,1.861-1.672C27.841,26.779,28.344,26.216,28.792,25.669z
			 M25.5,27.169c-0.828,0-1.5-0.672-1.5-1.5c0-0.828,0.672-1.5,1.5-1.5s1.5,0.672,1.5,1.5C27,26.498,26.328,27.169,25.5,27.169z"/>
		<path style="fill:#01557F;" d="M23.025,23.11c0.494-0.495,1.018-0.969,1.552-1.415c-1.718-1.226-3.182-1.813-4.048-1.813
			c-0.311,0-0.544,0.073-0.687,0.216c-0.388,0.388-0.25,1.418,0.358,2.69c0.315,0.659,0.752,1.358,1.26,2.066
			C21.943,24.266,22.456,23.68,23.025,23.11z"/>
		<path style="fill:#01557F;" d="M21.461,26.485c-0.508,0.708-0.945,1.407-1.26,2.066c-0.608,1.272-0.746,2.303-0.358,2.69
			c0.541,0.541,2.403,0.076,4.743-1.596c-0.526-0.441-1.05-0.907-1.56-1.417C22.456,27.659,21.943,27.073,21.461,26.485z"/>
	</g>
</g>
<g id="Layer_1">
</g>
</svg>
