<?xml version="1.0" encoding="iso-8859-1"?>
<!-- Generator: Adobe Illustrator 25.4.1, SVG Export Plug-In . SVG Version: 6.00 Build 0)  -->
<svg version="1.1" xmlns="http://www.w3.org/2000/svg" xmlns:xlink="http://www.w3.org/1999/xlink" x="0px" y="0px"
	 viewBox="0 0 36 36" style="enable-background:new 0 0 36 36;" xml:space="preserve">
<g id="notifications">
	<path style="fill:#01557F;" d="M28.394,4.318h-21c-1.65,0-3,1.35-3,3v15c0,1.65,1.35,3,3,3h10l7,7v-7h4c1.65,0,3-1.35,3-3v-15
		C31.394,5.668,30.044,4.318,28.394,4.318z"/>
</g>
<g id="Layer_1">
</g>
</svg>
