<?xml version="1.0" encoding="iso-8859-1"?>
<!-- Generator: Adobe Illustrator 25.4.1, SVG Export Plug-In . SVG Version: 6.00 Build 0)  -->
<svg version="1.1" xmlns="http://www.w3.org/2000/svg" xmlns:xlink="http://www.w3.org/1999/xlink" x="0px" y="0px"
	 viewBox="0 0 36 36" style="enable-background:new 0 0 36 36;" xml:space="preserve">
<g id="settings">
	<path style="fill:#01557F;" d="M32.061,20.957v-5.278h-3.374c-0.272-1.118-0.712-2.171-1.294-3.128l2.384-2.384l-3.732-3.732
		l-2.384,2.384c-0.957-0.582-2.01-1.022-3.128-1.294V4.151h-5.278v3.374c-1.118,0.272-2.171,0.712-3.128,1.294L9.743,6.434
		l-3.732,3.732l2.384,2.384c-0.582,0.957-1.022,2.01-1.294,3.128H3.727v5.278h3.374c0.272,1.118,0.712,2.171,1.294,3.128
		l-2.384,2.384l3.732,3.732l2.384-2.384c0.957,0.582,2.01,1.022,3.128,1.294v3.374h5.278v-3.374
		c1.118-0.272,2.171-0.712,3.128-1.294l2.384,2.384l3.732-3.732l-2.384-2.384c0.582-0.957,1.022-2.01,1.294-3.128H32.061z
		 M17.894,24.707c-3.528,0-6.389-2.86-6.389-6.389c0-3.528,2.86-6.389,6.389-6.389c3.528,0,6.389,2.86,6.389,6.389
		C24.283,21.846,21.423,24.707,17.894,24.707z"/>
</g>
<g id="Layer_1">
</g>
</svg>
