<?xml version="1.0" encoding="iso-8859-1"?>
<!-- Generator: Adobe Illustrator 25.4.1, SVG Export Plug-In . SVG Version: 6.00 Build 0)  -->
<svg version="1.1" xmlns="http://www.w3.org/2000/svg" xmlns:xlink="http://www.w3.org/1999/xlink" x="0px" y="0px"
	 viewBox="0 0 36 36" style="enable-background:new 0 0 36 36;" xml:space="preserve">
<g id="autotext">
	<g>
		<path style="fill:#01557F;" d="M30.865,2.286H17.632c-2.281,0-4.135,1.854-4.135,4.135v3.555c0.562,0.021,1.115,0.061,1.654,0.127
			V6.422c0-1.368,1.113-2.481,2.481-2.481h1.654v1.654c0,0.455,0.372,0.827,0.827,0.827h8.27c0.455,0,0.827-0.372,0.827-0.827V3.941
			h1.654c1.368,0,2.481,1.113,2.481,2.481v23.157c0,1.368-1.113,2.481-2.481,2.481H17.632c-1.368,0-2.481-1.113-2.481-2.481V28.1
			c-0.541,0.066-1.091,0.114-1.654,0.134v1.344c0,2.281,1.854,4.135,4.135,4.135h13.232c2.281,0,4.135-1.854,4.135-4.135V6.422
			C35,4.141,33.146,2.286,30.865,2.286z"/>
		<path style="fill:#01557F;" d="M24.524,19.103c0-4.263-5.266-7.719-11.762-7.719C6.266,11.384,1,14.84,1,19.103
			c0,2.855,2.369,5.343,5.881,6.678v5.452l5.881-4.411C19.258,26.822,24.524,23.366,24.524,19.103z"/>
	</g>
</g>
<g id="Layer_1">
</g>
</svg>
