<?xml version="1.0" encoding="iso-8859-1"?>
<!-- Generator: Adobe Illustrator 25.4.1, SVG Export Plug-In . SVG Version: 6.00 Build 0)  -->
<svg version="1.1" xmlns="http://www.w3.org/2000/svg" xmlns:xlink="http://www.w3.org/1999/xlink" x="0px" y="0px"
	 viewBox="0 0 36 36" style="enable-background:new 0 0 36 36;" xml:space="preserve">
<g id="users_x5F_groups">
	<path style="fill:#01557F;" d="M17.894,2.818c-8.56,0-15.5,6.94-15.5,15.5s6.94,15.5,15.5,15.5s15.5-6.94,15.5-15.5
		S26.455,2.818,17.894,2.818z M17.894,7.322c2.548,0,4.614,2.066,4.614,4.614c0,2.548-2.066,4.614-4.614,4.614
		c-2.548,0-4.614-2.066-4.614-4.614C13.281,9.387,15.346,7.322,17.894,7.322z M26.353,27.314H9.436v-6.92
		c0-1.269,1.038-2.307,2.307-2.307h12.303c1.269,0,2.307,1.038,2.307,2.307V27.314z"/>
</g>
<g id="Layer_1">
</g>
</svg>
