<?xml version="1.0" encoding="iso-8859-1"?>
<!-- Generator: Adobe Illustrator 25.4.1, SVG Export Plug-In . SVG Version: 6.00 Build 0)  -->
<svg version="1.1" xmlns="http://www.w3.org/2000/svg" xmlns:xlink="http://www.w3.org/1999/xlink" x="0px" y="0px"
	 viewBox="0 0 16 16" style="enable-background:new 0 0 16 16;" xml:space="preserve">
<g id="chevron_x5F_left">
	<path style="fill:#01557F;" d="M10.829,15.157c0.384,0,0.768-0.146,1.061-0.439c0.586-0.586,0.586-1.535,0-2.121L7.292,8
		l4.597-4.596c0.586-0.585,0.586-1.535,0-2.121c-0.585-0.586-1.535-0.586-2.121,0L4.111,6.939C3.83,7.22,3.671,7.602,3.671,8
		c0,0.398,0.158,0.779,0.439,1.061l5.657,5.657C10.061,15.01,10.445,15.157,10.829,15.157z"/>
</g>
<g id="Layer_1">
</g>
</svg>
