<?xml version="1.0" encoding="iso-8859-1"?>
<!-- Generator: Adobe Illustrator 25.4.1, SVG Export Plug-In . SVG Version: 6.00 Build 0)  -->
<svg version="1.1" xmlns="http://www.w3.org/2000/svg" xmlns:xlink="http://www.w3.org/1999/xlink" x="0px" y="0px"
	 viewBox="0 0 16 16" style="enable-background:new 0 0 16 16;" xml:space="preserve">
<g id="chevron_x5F_right">
	<path style="fill:#01557F;" d="M5.171,15.157c-0.384,0-0.768-0.146-1.061-0.439c-0.586-0.586-0.586-1.535,0-2.121L8.708,8
		L4.111,3.404c-0.586-0.585-0.586-1.535,0-2.121c0.585-0.586,1.535-0.586,2.121,0l5.657,5.657C12.17,7.22,12.329,7.602,12.329,8
		c0,0.398-0.158,0.779-0.439,1.061l-5.657,5.657C5.939,15.01,5.555,15.157,5.171,15.157z"/>
</g>
<g id="Layer_1">
</g>
</svg>
