<?xml version="1.0" encoding="iso-8859-1"?>
<!-- Generator: Adobe Illustrator 25.4.1, SVG Export Plug-In . SVG Version: 6.00 Build 0)  -->
<svg version="1.1" xmlns="http://www.w3.org/2000/svg" xmlns:xlink="http://www.w3.org/1999/xlink" x="0px" y="0px"
	 viewBox="0 0 16 16" style="enable-background:new 0 0 16 16;" xml:space="preserve">
<g id="customize">
	<path style="fill:#01557F;" d="M15.596,2.413l-1.786,1.786c-0.552,0.552-1.457,0.552-2.009,0c-0.553-0.553-0.552-1.457,0-2.009
		l1.786-1.786c-1.56-0.734-3.473-0.471-4.762,0.818c-1.22,1.22-1.53,3.001-0.939,4.511l-7.395,7.395
		c-0.655,0.655-0.655,1.726,0,2.381c0.655,0.655,1.726,0.655,2.381,0l7.395-7.395c1.51,0.591,3.291,0.281,4.511-0.939
		C16.067,5.885,16.33,3.973,15.596,2.413z M1.024,14.852c-0.329-0.329-0.329-0.862,0-1.191c0.329-0.329,0.862-0.329,1.191,0
		c0.329,0.329,0.329,0.862,0,1.191C1.886,15.18,1.353,15.18,1.024,14.852z"/>
</g>
<g id="Layer_1">
</g>
</svg>
