<?xml version="1.0" encoding="iso-8859-1"?>
<!-- Generator: Adobe Illustrator 25.4.1, SVG Export Plug-In . SVG Version: 6.00 Build 0)  -->
<svg version="1.1" xmlns="http://www.w3.org/2000/svg" xmlns:xlink="http://www.w3.org/1999/xlink" x="0px" y="0px"
	 viewBox="0 0 16 16" style="enable-background:new 0 0 16 16;" xml:space="preserve">
<g id="datePicker">
	<path style="fill:#01557F;" d="M14,1H2C1.45,1,1,1.45,1,2v12c0,0.55,0.45,1,1,1h12c0.55,0,1-0.45,1-1V2C15,1.45,14.55,1,14,1z
		 M3.714,14H2v-1.714h1.714V14z M3.714,11.429H2V9.714h1.714V11.429z M3.714,8.857H2V7.143h1.714V8.857z M3.714,6.286H2V4.571h1.714
		V6.286z M6.286,14H4.571v-1.714h1.714V14z M6.286,11.429H4.571V9.714h1.714V11.429z M6.286,8.857H4.571V7.143h1.714V8.857z
		 M6.286,6.286H4.571V4.571h1.714V6.286z M8.857,14H7.143v-1.714h1.714V14z M8.857,11.429H7.143V9.714h1.714V11.429z M8.857,8.857
		H7.143V7.143h1.714V8.857z M8.857,6.286H7.143V4.571h1.714V6.286z M11.429,14H9.714v-1.714h1.714V14z M11.429,11.429H9.714V9.714
		h1.714V11.429z M11.429,8.857H9.714V7.143h1.714V8.857z M11.429,6.286H9.714V4.571h1.714V6.286z M14,14h-1.714v-1.714H14V14z
		 M14,11.429h-1.714V9.714H14V11.429z M14,8.857h-1.714V7.143H14V8.857z M14,6.286h-1.714V4.571H14V6.286z"/>
</g>
<g id="Layer_1">
</g>
</svg>
