<?xml version="1.0" encoding="iso-8859-1"?>
<!-- Generator: Adobe Illustrator 25.4.1, SVG Export Plug-In . SVG Version: 6.00 Build 0)  -->
<svg version="1.1" xmlns="http://www.w3.org/2000/svg" xmlns:xlink="http://www.w3.org/1999/xlink" x="0px" y="0px"
	 viewBox="0 0 16 16" style="enable-background:new 0 0 16 16;" xml:space="preserve">
<g id="info">
	<g>
		<circle style="fill:#01557F;" cx="8" cy="8" r="8"/>
		<g>
			<g>
				<path style="fill:#FFFFFF;" d="M9.498,6.926v6.284H6.502V6.926H9.498z"/>
			</g>
			<g>
				<path style="fill:#FFFFFF;" d="M9.498,2.644v2.826H6.502V2.644H9.498z"/>
			</g>
		</g>
	</g>
</g>
<g id="Layer_1">
</g>
</svg>
