<?xml version="1.0" encoding="iso-8859-1"?>
<!-- Generator: Adobe Illustrator 25.4.1, SVG Export Plug-In . SVG Version: 6.00 Build 0)  -->
<svg version="1.1" xmlns="http://www.w3.org/2000/svg" xmlns:xlink="http://www.w3.org/1999/xlink" x="0px" y="0px"
	 viewBox="0 0 16 16" style="enable-background:new 0 0 16 16;" xml:space="preserve">
<g id="menu">
	<g>
		<path style="fill:#01557F;" d="M13.714,3.81H2.286c-1.048,0-1.905-0.857-1.905-1.905v0C0.381,0.857,1.238,0,2.286,0h11.429
			c1.048,0,1.905,0.857,1.905,1.905v0C15.619,2.952,14.762,3.81,13.714,3.81z"/>
		<path style="fill:#01557F;" d="M13.714,9.905H2.286C1.238,9.905,0.381,9.048,0.381,8v0c0-1.048,0.857-1.905,1.905-1.905h11.429
			c1.048,0,1.905,0.857,1.905,1.905v0C15.619,9.048,14.762,9.905,13.714,9.905z"/>
		<path style="fill:#01557F;" d="M13.714,16H2.286c-1.048,0-1.905-0.857-1.905-1.905v0c0-1.048,0.857-1.905,1.905-1.905h11.429
			c1.048,0,1.905,0.857,1.905,1.905v0C15.619,15.143,14.762,16,13.714,16z"/>
	</g>
</g>
<g id="Layer_1">
</g>
</svg>
