<?xml version="1.0" encoding="iso-8859-1"?>
<!-- Generator: Adobe Illustrator 25.4.1, SVG Export Plug-In . SVG Version: 6.00 Build 0)  -->
<svg version="1.1" xmlns="http://www.w3.org/2000/svg" xmlns:xlink="http://www.w3.org/1999/xlink" x="0px" y="0px"
	 viewBox="0 0 16 16" style="enable-background:new 0 0 16 16;" xml:space="preserve">
<g id="open">
	<path style="fill:#01557F;" d="M15.78,1.412L6.467,1l2.33,1.937c-2.12,1.345-5.61,4.651-3.29,9.114
		c0.358-3.282,3.091-4.893,4.948-5.866l0.312,3.087L15.78,1.412z M10.179,4.086l0.07,0.059l0.011,0.113L10.179,4.086z"/>
	<path style="fill:#01557F;" d="M14.45,5.634C14.479,5.752,14.5,5.873,14.5,6v7c0,0.827-0.673,1.5-1.5,1.5H3
		c-0.827,0-1.5-0.673-1.5-1.5V6c0-0.827,0.673-1.5,1.5-1.5h1.791c0.203-0.348,0.452-0.674,0.734-1H3C1.622,3.5,0.5,4.622,0.5,6v7
		c0,1.379,1.122,2.5,2.5,2.5h10c1.379,0,2.5-1.121,2.5-2.5V6c0-0.477-0.141-0.918-0.373-1.297L14.45,5.634z"/>
</g>
<g id="Layer_1">
</g>
</svg>
