<?xml version="1.0" encoding="iso-8859-1"?>
<!-- Generator: Adobe Illustrator 25.4.1, SVG Export Plug-In . SVG Version: 6.00 Build 0)  -->
<svg version="1.1" xmlns="http://www.w3.org/2000/svg" xmlns:xlink="http://www.w3.org/1999/xlink" x="0px" y="0px"
	 viewBox="0 0 16 16" style="enable-background:new 0 0 16 16;" xml:space="preserve">
<g id="payer">
	<path style="fill:#01557F;" d="M15,4h-3.25V2c0-0.965-0.785-1.75-1.75-1.75H6C5.035,0.25,4.25,1.035,4.25,2v2H1C0.45,4,0,4.45,0,5
		v10c0,0.55,0.45,1,1,1h14c0.55,0,1-0.45,1-1V5C16,4.45,15.55,4,15,4z M5.75,2c0-0.136,0.114-0.25,0.25-0.25h4
		c0.136,0,0.25,0.114,0.25,0.25v2h-4.5V2z M11,11H9v2H7v-2H5V9h2V7h2v2h2V11z"/>
</g>
<g id="Layer_1">
</g>
</svg>
