<?xml version="1.0" encoding="iso-8859-1"?>
<!-- Generator: Adobe Illustrator 25.4.1, SVG Export Plug-In . SVG Version: 6.00 Build 0)  -->
<svg version="1.1" xmlns="http://www.w3.org/2000/svg" xmlns:xlink="http://www.w3.org/1999/xlink" x="0px" y="0px"
	 viewBox="0 0 16 16" style="enable-background:new 0 0 16 16;" xml:space="preserve">
<g id="settings">
	<path style="opacity:0.99;fill:#01557F;" d="M16,9.49V6.51h-1.905c-0.154-0.631-0.402-1.226-0.731-1.766l1.346-1.346l-2.107-2.107
		l-1.346,1.346c-0.54-0.329-1.135-0.577-1.766-0.731V0H6.51v1.905C5.878,2.059,5.284,2.307,4.743,2.636L3.397,1.289L1.289,3.397
		l1.346,1.346C2.307,5.284,2.059,5.878,1.905,6.51H0v2.98h1.905c0.154,0.631,0.402,1.226,0.731,1.766l-1.346,1.346l2.107,2.107
		l1.346-1.346c0.54,0.329,1.135,0.577,1.766,0.731V16h2.98v-1.905c0.631-0.154,1.226-0.402,1.766-0.731l1.346,1.346l2.107-2.107
		l-1.346-1.346c0.329-0.54,0.577-1.135,0.731-1.766H16z M8,11.608c-1.993,0-3.608-1.615-3.608-3.608
		c0-1.993,1.615-3.608,3.608-3.608c1.993,0,3.608,1.615,3.608,3.608C11.608,9.993,9.993,11.608,8,11.608z"/>
</g>
<g id="Layer_1">
</g>
</svg>
